restful/model/Brand.class
restful/model/Product.class
restful/dao/ProductDao.class
restful/util/HibernateUtil.class
restful/config/ApplicationConfig.class
restful/service/ProductService.class
restful/deserializer/ProductDeserializer.class
restful/dao/BrandDao.class
restful/dao/AbstractDao.class
restful/serializer/ProductSerializer.class
